…
    ## $title
    ## [1] "Structural vs Year Built"
    ## 
    ## attr(,"class")
    ## [1] "labels"

``` r
smaller<-select(.data = delaware, STRUCTURE_NUMBER_008,YEAR_BUILT_027,COUNTY_CODE_003,STRUCTURAL_EVAL_067,SERVICE_LEVEL_005C)
smaller
```

    ## # A tibble: 879 x 5
    ##    STRUCTURE_NUMBE… YEAR_BUILT_027 COUNTY_CODE_003 STRUCTURAL_EVAL…
    ##    <chr>                     <dbl> <chr>                      <dbl>
    ##  1 1001 279                   1928 003                            5
    ##  2 1001A279                   1900 003                            6
    ##  3 1001B009                   1919 003                            7
    ##  4 1002 232                   1933 003                            6
    ##  5 1003 225                   1990 003                            6
    ##  6 1008 221                   1960 003                            7
    ##  7 1009 221                   1839 003                            6
    ##  8 1011N267                   1997 003                            6
    ##  9 1011S267                   1997 003                            5
    ## 10 1014 221                   1962 003                            7
    ## # … with 869 more rows, and 1 more variable: SERVICE_LEVEL_005C <dbl>
